[gd_scene load_steps=5 format=2]

[ext_resource path="res://Pedestrians/PedestrianBody.gd" type="Script" id=1]
[ext_resource path="res://Pedestrians/Pedestrian.gd" type="Script" id=2]

[sub_resource type="BoxShape" id=1]

[sub_resource type="BoxShape" id=2]
extents = Vector3( 0.331137, 0.873085, 0.241274 )

[node name="Pedestrian" type="PathFollow"]
rotation_mode = 4
script = ExtResource( 2 )

[node name="PedestrianBody" type="StaticBody" parent="." groups=[
"damageable",
"pedestrian",
]]
collision_layer = 144
collision_mask = 144
script = ExtResource( 1 )

[node name="CollisionShape" type="CollisionShape" parent="PedestrianBody"]
shape = SubResource( 1 )

[node name="RagdollArea" type="Area" parent="."]

[node name="CollisionShape" type="CollisionShape" parent="RagdollArea"]
transform = Transform( 1, 0, 0, 0, 1, 0, 0, 0, 1, 0, 0.917805, 0 )
shape = SubResource( 2 )

[node name="RagdollTimer" type="Timer" parent="."]
wait_time = 10.0
one_shot = true

[node name="ForwardRay" type="RayCast" parent="."]
transform = Transform( 1, 0, 0, 0, 1, 0, 0, 0, 1, 0, 0.75, 0 )
enabled = true
cast_to = Vector3( 0, 0, 3 )
collision_mask = 17

[connection signal="body_entered" from="RagdollArea" to="." method="_on_RagdollArea_body_entered"]
[connection signal="timeout" from="RagdollTimer" to="." method="_on_RagdollTimer_timeout"]
