[gd_scene load_steps=4 format=2]

[ext_resource path="res://Pedestrians/Pedestrian.tscn" type="PackedScene" id=1]
[ext_resource path="res://POIBody.tscn" type="PackedScene" id=2]
[ext_resource path="res://Pedestrians/TargetPedestrian.gd" type="Script" id=3]

[node name="TargetPedestrian" instance=ExtResource( 1 )]
script = ExtResource( 3 )
speed_range = Vector2( 4, 7 )
remove_if_far = false

[node name="POIBody" parent="." index="4" instance=ExtResource( 2 )]
show_offscreen = true
color = Color( 1, 0, 0, 1 )
show_during_mission = true
