[gd_scene load_steps=6 format=2]

[sub_resource type="Shader" id=1]
code = "shader_type spatial;
render_mode unshaded;


uniform float DepthMultiplyer = 20.0;

uniform sampler2D NoiseTexture;
uniform float NoiseScale = 1.0;
uniform float NoiseHeight = 1.0;
uniform float NoiseSpeed = 1.0;


varying float CloudHeight;
uniform vec4 color:hint_color = vec4(1, 1, 1, 1);
void fragment() {
	ALBEDO = mix(vec3(CloudHeight), color.rgb, color.a);
}

void vertex() {
	float noise0 = texture(NoiseTexture, VERTEX.xz * NoiseScale + vec2(TIME * NoiseSpeed, 0.0)).r;
	float noise1 = texture(NoiseTexture, VERTEX.xz * NoiseScale + vec2(TIME * NoiseSpeed)).r;
	CloudHeight = sqrt(noise0 * noise1 * 2.0);
	VERTEX.y *= CloudHeight * NoiseHeight;
}"

[sub_resource type="OpenSimplexNoise" id=2]
seed = 4
octaves = 1
period = 83.0
lacunarity = 0.92

[sub_resource type="NoiseTexture" id=3]
seamless = true
noise = SubResource( 2 )

[sub_resource type="ShaderMaterial" id=4]
shader = SubResource( 1 )
shader_param/DepthMultiplyer = 20.0
shader_param/NoiseScale = 0.1
shader_param/NoiseHeight = 2.192
shader_param/NoiseSpeed = 0.25
shader_param/color = Color( 1, 0.701961, 0.411765, 0.188235 )
shader_param/NoiseTexture = SubResource( 3 )

[sub_resource type="CubeMesh" id=5]
size = Vector3( 140, 2, 140 )
subdivide_width = 400
subdivide_depth = 400

[node name="Clouds" type="Spatial"]

[node name="MeshInstance" type="MeshInstance" parent="."]
layers = 4
material_override = SubResource( 4 )
cast_shadow = 0
mesh = SubResource( 5 )
material/0 = null
